2025-11-16 09:36:07 [32mINFO[0m 
======================================== REQUEST ========================================
2025-11-16 09:36:07 [32mINFO[0m [32mpytest tests/api/test_movies.py::TestMovies::test_get_movies_with_params[0m
curl -X GET 'https://api.dev-cinescope.coconutqa.ru/movies/?pageSize=2&page=1&minPrice=192&maxPrice=327&locations=SPB&published=true&genreId=1&createdAt=asc' \
-H 'User-Agent: python-requests/2.32.5' \
-H 'Accept-Encoding: gzip, deflate' \
-H 'Accept: application/json' \
-H 'Connection: keep-alive' \
-H 'Content-Type: application/json' \

2025-11-16 09:36:07 [32mINFO[0m 
======================================== RESPONSE ========================================
2025-11-16 09:36:07 [32mINFO[0m 	STATUS_CODE: [32m200[0m
	DATA:
{"movies":[{"id":9,"name":"Интерстеллар","description":"Следующий шаг человечества станет величайшим","genreId":1,"imageUrl":"https://avatars.mds.yandex.net/get-kinopoisk-image/1600647/430042eb-ee69-4818-aed0-a312400a26bf/300x450","price":300,"rating":0,"location":"SPB","published":true,"createdAt":"2024-08-27T07:41:20.484Z","genre":{"name":"Драма"}},{"id":29,"name":"Хатико: Самый верный друг","description":"Преданный пес каждый день встречает хозяина на вокзале, что бы ни случилось. История, которая потрясла мир","genreId":1,"imageUrl":"https://avatars.mds.yandex.net/get-kinopoisk-image/1629390/82f8a2dc-a439-4832-9f0f-dc599e6e78d2/300x450","price":300,"rating":0,"location":"SPB","published":true,"createdAt":"2024-08-27T07:50:51.781Z","genre":{"name":"Драма"}}],"count":64,"page":1,"pageSize":2,"pageCount":32}
2025-11-16 09:36:07 [32mINFO[0m ================================================================================