2025-11-16 09:36:07 [32mINFO[0m 
======================================== REQUEST ========================================
2025-11-16 09:36:07 [32mINFO[0m [32mpytest tests/api/test_movies.py::TestMovies::test_get_movies[0m
curl -X GET 'https://api.dev-cinescope.coconutqa.ru/movies/' \
-H 'User-Agent: python-requests/2.32.5' \
-H 'Accept-Encoding: gzip, deflate' \
-H 'Accept: application/json' \
-H 'Connection: keep-alive' \
-H 'Content-Type: application/json' \

2025-11-16 09:36:07 [32mINFO[0m 
======================================== RESPONSE ========================================
2025-11-16 09:36:07 [32mINFO[0m 	STATUS_CODE: [32m200[0m
	DATA:
{"movies":[{"id":22,"name":"Море крови и рваных жоп","description":"Девушка открывает в себе телекинетические способности и с их помощью сдает ЕГЭ","genreId":3,"imageUrl":"https://encrypted-tbn0.gstatic.com/images?q=tbn:ANd9GcQ_CF05Bl3sqs8q0s5LOd1ephWDHx-6C8Y0Pg&s","price":998,"rating":1,"location":"SPB","published":true,"createdAt":"2024-07-12T09:37:03.390Z","genre":{"name":"Фантастика"}},{"id":5,"name":"Море крови и рваных жоп 2","description":"Внучка главной героини из первого фильма получила силу, которая и не снилась ее бабуле. Вместо того, чтобы направить телекинетические способности на получение образования она взрывает пуканы бумеров, вейпит, кринжует и считает, что это СВЭГ.","genreId":2,"imageUrl":"https://cdn1.ozone.ru/multimedia/c600/1034228334.jpg","price":1000,"rating":0,"location":"SPB","published":true,"createdAt":"2024-07-12T09:43:15.986Z","genre":{"name":"Комедия"}},{"id":1,"name":"Экспресс Бобрихино - Попускалово","description":"Молодая пара уезжает из своего села в новое село, ибо коров всех съели. На их поиски выдвигается председатель сельхоза Бобрихино из последнего вагона, а из первого вагона наряд ополчения попускаловых вегетарианцев. Бестселлер нашего времени из разряда \"Игры на выживание или как пройти с бутылкой водки мимо охранника Пятерочки\".","genreId":8,"imageUrl":"https://avatars.mds.yandex.net/i?id=6e323e2c4ceb433daa2d86ff33b67332_l-9225904-images-thumbs&n=13","price":345,"rating":0,"location":"SPB","published":true,"createdAt":"2024-08-23T12:50:58.155Z","genre":{"name":"Фэнтези"}},{"id":2,"name":"Ослиный кал дорога к офферу","description":"Что то про ослов и QA","genreId":2,"imageUrl":"https://imgur.com/a/yqbh2nE","price":300,"rating":0,"location":"MSK","published":true,"createdAt":"2024-08-23T21:10:34.381Z","genre":{"name":"Комедия"}},{"id":25,"name":"Гордость и предубеждение","description":"Братство распалось, но Кольцо Всевластья должно быть уничтожено. Фродо и Сэм вынуждены довериться Голлуму, который взялся провести их к вратам Мордора. Громадная армия Сарумана приближается: члены братства и их союзники готовы принять бой. Битва за Средиземье продолжается.","genreId":1,"imageUrl":"https://krasotka-tlt.ru/wp-content/uploads/7/4/e/74e42a8006ccd3a45a56f551f0416868.jpeg","price":290,"rating":0,"location":"MSK","published":true,"createdAt":"2024-08-27T07:06:17.336Z","genre":{"name":"Драма"}},{"id":41,"name":"Король Лев","description":"У величественного Короля-Льва Муфасы рождается наследник по имени Симба. Уже в детстве любознательный малыш становится жертвой интриг своего завистливого дяди Шрама, мечтающего о власти.","genreId":1,"imageUrl":"https://avatars.mds.yandex.net/get-kinopoisk-image/1704946/60aa1abc-b754-4817-ad9c-0bcda427a12b/300x450","price":260,"rating":4.7,"location":"MSK","published":true,"createdAt":"2024-08-27T07:38:14.807Z","genre":{"name":"Драма"}},{"id":14,"name":"Зеленая миля","description":"Пол Эджкомб не верил в чудеса. Пока не столкнулся с одним из них","genreId":1,"imageUrl":"https://www.kinopoisk.ru/u3kU04367/f0008eGp5","price":250,"rating":4,"location":"MSK","published":true,"createdAt":"2024-08-27T07:38:40.773Z","genre":{"name":"Драма"}},{"id":6,"name":"1+1","description":"Аристократ на коляске нанимает в сиделки бывшего заключенного.","genreId":3,"imageUrl":"https://avatars.mds.yandex.net/get-kinopoisk-image/1946459/bf93b465-1189-4155-9dd1-cb9fb5cb1bb5/300x450","price":350,"rating":0,"location":"MSK","published":true,"createdAt":"2024-08-27T07:39:10.815Z","genre":{"name":"Фантастика"}},{"id":7,"name":"Побег из Шоушенка","description":"Страх — это кандалы. Надежда — это свобода","genreId":1,"imageUrl":"https://avatars.mds.yandex.net/get-kinopoisk-image/1599028/0b76b2a2-d1c7-4f04-a284-80ff7bb709a4/300x450","price":330,"rating":0,"location":"SPB","published":true,"createdAt":"2024-08-27T07:40:10.463Z","genre":{"name":"Драма"}},{"id":8,"name":"Форрест Гамп","description":"Мир уже никогда не будет прежним, после того как вы увидите его глазами Форреста Гампа","genreId":4,"imageUrl":"https://avatars.mds.yandex.net/get-kinopoisk-image/1599028/3560b757-9b95-45ec-af8c-623972370f9d/300x450","price":300,"rating":0,"location":"SPB","published":true,"createdAt":"2024-08-27T07:40:53.373Z","genre":{"name":"Криминал"}}],"count":1072,"page":1,"pageSize":10,"pageCount":108}
2025-11-16 09:36:07 [32mINFO[0m ================================================================================